{
  "kind": "collectionType",
  "collectionName": "project_building_infos",
  "info": {
    "singularName": "project-building-info",
    "pluralName": "project-building-infos",
    "displayName": "project_building_info",
    "description": ""
  },
  "options": {
    "draftAndPublish": true
  },
  "pluginOptions": {},
  "attributes": {
    "project_building": {
      "type": "string",
      "required": true,
      "maxLength": 30
    },
    "project_wing": {
      "type": "string",
      "required": true,
      "maxLength": 30
    },
    "project_flatno": {
      "type": "string",
      "required": true,
      "maxLength": 30
    },
    "project_id": {
      "type": "relation",
      "relation": "manyToOne",
      "target": "api::project.project",
      "inversedBy": "project_building_infos"
    },
    "outward_entries": {
      "type": "relation",
      "relation": "oneToMany",
      "target": "api::outward-entry.outward-entry",
      "mappedBy": "project_building_info"
    }
  }
}
